[gd_resource type="Environment" load_steps=2 format=2]

[sub_resource type="ProceduralSky" id=1]
sky_top_color = Color( 0.32549, 0, 0.180392, 1 )
sky_horizon_color = Color( 1, 0.929412, 0.972549, 1 )
sky_curve = 1.39095
ground_bottom_color = Color( 0.313726, 0, 0.14902, 1 )
ground_horizon_color = Color( 1, 0.929412, 0.972549, 1 )
ground_curve = 0.710125
sun_color = Color( 1, 0, 0.588235, 1 )
sun_latitude = 51.77
sun_longitude = 180.0
sun_angle_max = 90.16
sun_curve = 0.221914

[resource]
background_mode = 2
background_sky = SubResource( 1 )
background_energy = 0.8
ambient_light_color = Color( 0.772549, 0.964706, 1, 1 )
ambient_light_energy = 0.1
ambient_light_sky_contribution = 0.0
fog_enabled = true
fog_color = Color( 0.73, 0.6497, 0.699218, 1 )
fog_sun_color = Color( 1, 0.666667, 0, 1 )
fog_depth_begin = 20.0
fog_depth_end = 500.0
fog_depth_curve = 0.5
