[gd_resource type="ShaderMaterial" load_steps=4 format=2]

[ext_resource path="res://grass/shaders/particle.shader" type="Shader" id=1]
[ext_resource path="res://grass/textures/iceland.png" type="Texture" id=2]
[ext_resource path="res://grass/textures/noise_texture.png" type="Texture" id=3]

[resource]
shader = ExtResource( 1 )
shader_param/rows = 300
shader_param/spacing = 0.2
shader_param/amplitude = 15.0
shader_param/heightmap_size = Vector2( 300, 300 )
shader_param/noise_space = 200.0
shader_param/heightmap = ExtResource( 2 )
shader_param/noisemap = ExtResource( 3 )
